%YAML 1.1
%TAG !u! tag:unity3d.com,2011:
--- !u!114 &11400000
MonoBehaviour:
  m_ObjectHideFlags: 0
  m_CorrespondingSourceObject: {fileID: 0}
  m_PrefabInstance: {fileID: 0}
  m_PrefabAsset: {fileID: 0}
  m_GameObject: {fileID: 0}
  m_Enabled: 1
  m_EditorHideFlags: 0
  m_Script: {fileID: 11500000, guid: 65fe525cfe344117a0f95e487b874f30, type: 3}
  m_Name: SapphireGemData
  m_EditorClassIdentifier: 
  _name: Sapphire
  _spriteDefault: {fileID: 21300016, guid: 466bf8a2b1b67784ea4f0f57bbded258, type: 3}
  _spriteHighlighted: {fileID: 21300014, guid: 466bf8a2b1b67784ea4f0f57bbded258, type: 3}
  _scoreValue: 100
